<?xml version="1.0" encoding="UTF-8" standalone="no"?>
<svg
   class="seperator"
   preserveAspectRatio="none"
   viewBox="0 0 1440 268.00107"
   version="1.1"
   id="svg1"
   width="1440"
   height="268.00107"
   xmlns="http://www.w3.org/2000/svg"
   xmlns:svg="http://www.w3.org/2000/svg">
  <path
     d="M 144,0.00105911 C 128.00002,-0.07394089 111.99998,3.8502811 96,6.7002781 64.000032,12.000272 31.999984,12.001059 16,12.001059 H 0 V 268.00106 h 1440 v -160 l -16,5.30078 c -16,5.7 -48,15.69846 -80,37.39844 -32,21.29998 -64,53.29998 -96,32 -32,-21.69998 -64,-95.698481 -96,-133.398441 -32,-37.299961 -64,-37.299961 -96,0 -32,37.69996 -64.00003,111.699221 -96,106.699221 -31.99997,-5 -64.00003,-91.000811 -96,-117.300782 -31.99997,-26.699974 -64.00003,5.301584 -96,26.601561 -31.99997,21.69998 -64.00003,31.69923 -96,42.699221 -31.99997,10.99999 -64.00003,21.00001 -96,32 -31.99997,10.99999 -64.00003,20.99921 -96,10.69922 -31.99997,-10.69999 -64.00003,-42.69922 -96,-42.69922 -31.99997,0 -64.00003,31.99998 -96,16 C 256.00003,108.00108 223.99997,44.001814 192,17.30184 176.00002,4.1518531 159.99998,0.07605911 144,0.00105911 Z" />
</svg>
